%YAML 1.1
%TAG !u! tag:unity3d.com,2011:
--- !u!1001 &8559879429919535153
PrefabInstance:
  m_ObjectHideFlags: 0
  serializedVersion: 2
  m_Modification:
    m_TransformParent: {fileID: 0}
    m_Modifications:
    - target: {fileID: 1692090985677800211, guid: e487de662fde2ea4684095bb40e9025c, type: 3}
      propertyPath: m_Color.b
      value: 0.44313726
      objectReference: {fileID: 0}
    - target: {fileID: 1692090985677800211, guid: e487de662fde2ea4684095bb40e9025c, type: 3}
      propertyPath: m_Color.g
      value: 0.94509804
      objectReference: {fileID: 0}
    - target: {fileID: 1692090985677800211, guid: e487de662fde2ea4684095bb40e9025c, type: 3}
      propertyPath: m_Color.r
      value: 0.84313726
      objectReference: {fileID: 0}
    - target: {fileID: 4314954291232790572, guid: e487de662fde2ea4684095bb40e9025c, type: 3}
      propertyPath: m_Name
      value: Creature002View
      objectReference: {fileID: 0}
    - target: {fileID: 7014786952014057462, guid: e487de662fde2ea4684095bb40e9025c, type: 3}
      propertyPath: m_Pivot.x
      value: 0.5
      objectReference: {fileID: 0}
    - target: {fileID: 7014786952014057462, guid: e487de662fde2ea4684095bb40e9025c, type: 3}
      propertyPath: m_Pivot.y
      value: 0.5
      objectReference: {fileID: 0}
    - target: {fileID: 7014786952014057462, guid: e487de662fde2ea4684095bb40e9025c, type: 3}
      propertyPath: m_RootOrder
      value: 0
      objectReference: {fileID: 0}
    - target: {fileID: 7014786952014057462, guid: e487de662fde2ea4684095bb40e9025c, type: 3}
      propertyPath: m_AnchorMax.x
      value: 0.5
      objectReference: {fileID: 0}
    - target: {fileID: 7014786952014057462, guid: e487de662fde2ea4684095bb40e9025c, type: 3}
      propertyPath: m_AnchorMax.y
      value: 0.5
      objectReference: {fileID: 0}
    - target: {fileID: 7014786952014057462, guid: e487de662fde2ea4684095bb40e9025c, type: 3}
      propertyPath: m_AnchorMin.x
      value: 0.5
      objectReference: {fileID: 0}
    - target: {fileID: 7014786952014057462, guid: e487de662fde2ea4684095bb40e9025c, type: 3}
      propertyPath: m_AnchorMin.y
      value: 0.5
      objectReference: {fileID: 0}
    - target: {fileID: 7014786952014057462, guid: e487de662fde2ea4684095bb40e9025c, type: 3}
      propertyPath: m_SizeDelta.x
      value: 200
      objectReference: {fileID: 0}
    - target: {fileID: 7014786952014057462, guid: e487de662fde2ea4684095bb40e9025c, type: 3}
      propertyPath: m_SizeDelta.y
      value: 200
      objectReference: {fileID: 0}
    - target: {fileID: 7014786952014057462, guid: e487de662fde2ea4684095bb40e9025c, type: 3}
      propertyPath: m_LocalPosition.x
      value: 0
      objectReference: {fileID: 0}
    - target: {fileID: 7014786952014057462, guid: e487de662fde2ea4684095bb40e9025c, type: 3}
      propertyPath: m_LocalPosition.y
      value: 0
      objectReference: {fileID: 0}
    - target: {fileID: 7014786952014057462, guid: e487de662fde2ea4684095bb40e9025c, type: 3}
      propertyPath: m_LocalPosition.z
      value: 0
      objectReference: {fileID: 0}
    - target: {fileID: 7014786952014057462, guid: e487de662fde2ea4684095bb40e9025c, type: 3}
      propertyPath: m_LocalRotation.w
      value: 1
      objectReference: {fileID: 0}
    - target: {fileID: 7014786952014057462, guid: e487de662fde2ea4684095bb40e9025c, type: 3}
      propertyPath: m_LocalRotation.x
      value: 0
      objectReference: {fileID: 0}
    - target: {fileID: 7014786952014057462, guid: e487de662fde2ea4684095bb40e9025c, type: 3}
      propertyPath: m_LocalRotation.y
      value: 0
      objectReference: {fileID: 0}
    - target: {fileID: 7014786952014057462, guid: e487de662fde2ea4684095bb40e9025c, type: 3}
      propertyPath: m_LocalRotation.z
      value: 0
      objectReference: {fileID: 0}
    - target: {fileID: 7014786952014057462, guid: e487de662fde2ea4684095bb40e9025c, type: 3}
      propertyPath: m_AnchoredPosition.x
      value: 0
      objectReference: {fileID: 0}
    - target: {fileID: 7014786952014057462, guid: e487de662fde2ea4684095bb40e9025c, type: 3}
      propertyPath: m_AnchoredPosition.y
      value: 0
      objectReference: {fileID: 0}
    - target: {fileID: 7014786952014057462, guid: e487de662fde2ea4684095bb40e9025c, type: 3}
      propertyPath: m_LocalEulerAnglesHint.x
      value: 0
      objectReference: {fileID: 0}
    - target: {fileID: 7014786952014057462, guid: e487de662fde2ea4684095bb40e9025c, type: 3}
      propertyPath: m_LocalEulerAnglesHint.y
      value: 0
      objectReference: {fileID: 0}
    - target: {fileID: 7014786952014057462, guid: e487de662fde2ea4684095bb40e9025c, type: 3}
      propertyPath: m_LocalEulerAnglesHint.z
      value: 0
      objectReference: {fileID: 0}
    - target: {fileID: 7708011440668769644, guid: e487de662fde2ea4684095bb40e9025c, type: 3}
      propertyPath: m_Color.b
      value: 0.47894165
      objectReference: {fileID: 0}
    - target: {fileID: 7708011440668769644, guid: e487de662fde2ea4684095bb40e9025c, type: 3}
      propertyPath: m_Color.g
      value: 0.44716978
      objectReference: {fileID: 0}
    - target: {fileID: 7708011440668769644, guid: e487de662fde2ea4684095bb40e9025c, type: 3}
      propertyPath: m_Color.r
      value: 1
      objectReference: {fileID: 0}
    m_RemovedComponents: []
  m_SourcePrefab: {fileID: 100100000, guid: e487de662fde2ea4684095bb40e9025c, type: 3}
